{"errno":0,"data":{"total":138,"pages":28,"pageSize":5,"page":1,"list":[{"id":13,"customerId":7,"shopId":null,"pid":null,"orderType":null,"state":6,"subState":null,"gmtCreateTime":"2020-11-28T17:48:46","originPrice":null,"discountPrice":null,"freightPrice":null},{"id":14,"customerId":7,"shopId":null,"pid":null,"orderType":null,"state":6,"subState":null,"gmtCreateTime":"2020-11-28T17:48:46","originPrice":null,"discountPrice":null,"freightPrice":null},{"id":16,"customerId":7,"shopId":null,"pid":null,"orderType":null,"state":6,"subState":null,"gmtCreateTime":"2020-11-28T17:48:46","originPrice":null,"discountPrice":null,"freightPrice":null},{"id":20,"customerId":7,"shopId":null,"pid":null,"orderType":null,"state":6,"subState":null,"gmtCreateTime":"2020-11-28T17:48:46","originPrice":null,"discountPrice":null,"freightPrice":null},{"id":21,"customerId":7,"shopId":null,"pid":null,"orderType":null,"state":6,"subState":null,"gmtCreateTime":"2020-11-28T17:48:46","originPrice":null,"discountPrice":null,"freightPrice":null}]},"errmsg":"成功"}
